…
``` r
df_combined <- right_join(df_combined[[1]], df_combined[[2]], 
                          by = c("time", "ensemble", "depth", "data_assimilation")) %>% 
  mutate(forecast_issue_time = forecast_issue_time,
         Forecast_id = Forecast_id,
         ForecastProject_id = ForecastProject_id) %>% 
  select(time, depth, ensemble, state_names[1], 
         state_names[2], forecast_issue_time, 
         data_assimilation, ForecastProject_id, Forecast_id) 

df_combined
```

    ## # A tibble: 270 x 9
    ##    time       depth ensemble species_1 species_2 forecast_issue_…
    ##    <date>     <dbl>    <int>     <dbl>     <dbl> <date>          
    ##  1 2001-03-07     1        1     0.5        0.5  2001-03-04      
    ##  2 2001-03-07     1        2     0.5        0.5  2001-03-04      
    ##  3 2001-03-07     1        3     0.5        0.5  2001-03-04      
    ##  4 2002-03-07     1        1     0.961      1.96 2001-03-04      
    ##  5 2002-03-07     1        2     0.985      1.95 2001-03-04      
    ##  6 2002-03-07     1        3     0.960      1.96 2001-03-04      
    ##  7 2003-03-07     1        1     1.79       7.19 2001-03-04      
    ##  8 2003-03-07     1        2     1.84       7.15 2001-03-04      
    ##  9 2003-03-07     1        3     1.78       7.18 2001-03-04      
    ## 10 2004-03-07     1        1     3.02      20.4  2001-03-04      
    ## # … with 260 more rows, and 3 more variables: data_assimilation <dbl>,
    ## #   ForecastProject_id <dbl>, Forecast_id <chr>
…
 df_summary <- right_join(df_species_1, df_species_2)
```

    ## Joining, by = c("time", "depth", "forecast_issue_time", "data_assimilation", "ForecastProject_id", "Forecast_id", "Statistic")

``` r
 df_summary
```

    ## # A tibble: 270 x 9
    ## # Groups:   time, depth, forecast_issue_time, data_assimilation,
    ## #   ForecastProject_id [90]
    ##    time       depth forecast_issue_… data_assimilati… ForecastProject…
    ##    <date>     <dbl> <date>                      <dbl>            <dbl>
    ##  1 2001-03-07     1 2001-03-04                      0         30405043
    ##  2 2001-03-07     1 2001-03-04                      0         30405043
    ##  3 2001-03-07     1 2001-03-04                      0         30405043
    ##  4 2001-03-07     3 2001-03-04                      0         30405043
    ##  5 2001-03-07     3 2001-03-04                      0         30405043
    ##  6 2001-03-07     3 2001-03-04                      0         30405043
    ##  7 2001-03-07     5 2001-03-04                      0         30405043
    ##  8 2001-03-07     5 2001-03-04                      0         30405043
    ##  9 2001-03-07     5 2001-03-04                      0         30405043
    ## 10 2002-03-07     1 2001-03-04                      0         30405043
    ## # … with 260 more rows, and 4 more variables: Forecast_id <chr>,
    ## #   Statistic <chr>, species_1 <dbl>, species_2 <dbl>
…
