Example of interacting with and visualizing EFI standard data • EFIstandards
…
To get the data parse the filename and load it!

datafilename <- eml_get(dt_md, "objectName")[[1]]
# this steps are necessary because this is in an R package if you have a downloaded data repository
# you coudl just pass 'datafilename' into read.csv here
datafile <- system.file("extdata", datafilename, package="EFIstandards") 
dt <- as_tibble(read.csv(datafile, row.names=1))
dt

## # A tibble: 1,800 × 8
##    time    depth ensemble obs_flag species_1 species_2 forecast data_assimilati…
##    <chr>   <int>    <int>    <int>     <dbl>     <dbl>    <int>            <int>
##  1 2001-0…     1        1        1       0.5       0.5        0                0
##  2 2001-0…     3        1        1       0.5       0.5        0                0
##  3 2001-0…     5        1        1       0.5       0.5        0                0
##  4 2001-0…     1        2        1       0.5       0.5        0                0
##  5 2001-0…     3        2        1       0.5       0.5        0                0
##  6 2001-0…     5        2        1       0.5       0.5        0                0
##  7 2001-0…     1        3        1       0.5       0.5        0                0
##  8 2001-0…     3        3        1       0.5       0.5        0                0
##  9 2001-0…     5        3        1       0.5       0.5        0                0
## 10 2001-0…     1        4        1       0.5       0.5        0                0
## # … with 1,790 more rows
…
